Mini Project 1: Data Cleaning
…
pc_sales_final <- pc_sales_new %>% 
    select(country, year, sales)        # selecting all columns except drop1 and drop2

pc_sales_final %>% 
    mutate(
        year = as.numeric(year)         # converting year to a number datatype
    )

#> # A tibble: 222 × 3
#>    country                      year    sales
#>    <chr>                       <dbl>    <dbl>
#>  1 EUROPE                       2019 17950631
#>  2 EUROPE                       2020 14177970
#>  3 EUROPE                       2021 14020486
#>  4 EU 27 countries + EFTA + UK  2019 15789210
#>  5 EU 27 countries + EFTA + UK  2020 11955992
#>  6 EU 27 countries + EFTA + UK  2021 11782751
#>  7 AUSTRIA                      2019   320381
#>  8 AUSTRIA                      2020   257721
#>  9 AUSTRIA                      2021   239803
#> 10 BELGIUM                      2019   550008
#> # ℹ 212 more rows
…
